         100   0.0000000000000000       0.99800000000000000        1.8545994065281900E-006
  -3.3999999999999999       -5.4000000000000004                1   1.8545994065281900E-006           7
   1.85841684E-06   6.82638462E-01   1.07734712E+06   3.95031134E+00   1.07729503E+06 1 1
  -3.3999999999999999       -4.2000000000000002                1   1.8545994065281900E-006           7
   1.85928834E-06   7.15395217E-01   1.07709656E+06   4.38960416E+00   1.07704286E+06 1 1
  -3.3999999999999999       -3.0000000000000000                1   1.8545994065281900E-006           7
   1.86044847E-06   6.62867487E-01   1.07676312E+06   4.98688108E+00   1.07670749E+06 1 1
  -3.3999999999999999       -1.7999999999999998                1   1.8545994065281900E-006           7
   1.86178526E-06   4.78814069E-01   1.07637909E+06   5.55249559E+00   1.07632147E+06 2 1
  -3.3999999999999999      -0.59999999999999964                1   1.8545994065281900E-006           7
   1.86278867E-06   1.78016854E-01   1.07609095E+06   5.88462484E+00   1.07603199E+06 2 1
  -3.3999999999999999       0.59999999999999964                1   1.8545994065281900E-006           7
   1.86278867E-06  -1.78016854E-01   1.07609095E+06   5.88462484E+00   1.07603199E+06 2 1
  -3.3999999999999999        1.7999999999999998                1   1.8545994065281900E-006           7
   1.86178526E-06  -4.78814069E-01   1.07637909E+06   5.55249559E+00   1.07632147E+06 2 1
  -3.3999999999999999        3.0000000000000000                1   1.8545994065281900E-006           7
   1.86044847E-06  -6.62867487E-01   1.07676312E+06   4.98688108E+00   1.07670749E+06 1 1
  -3.3999999999999999        4.1999999999999993                1   1.8545994065281900E-006           7
   1.85928834E-06  -7.15395217E-01   1.07709656E+06   4.38960416E+00   1.07704286E+06 1 1
  -3.3999999999999999        5.4000000000000004                1   1.8545994065281900E-006           7
   1.85841684E-06  -6.82638462E-01   1.07734712E+06   3.95031134E+00   1.07729503E+06 1 1
  -2.2000000000000002       -5.4000000000000004                1   1.8545994065281900E-006           7
   1.85895957E-06   8.64438018E-01   1.07719187E+06   4.17689778E+00   1.07713830E+06 1 1
  -2.2000000000000002       -4.2000000000000002                1   1.8545994065281900E-006           7
   1.86039870E-06   8.79666770E-01   1.07677911E+06   5.57903208E+00   1.07672253E+06 2 1
  -2.2000000000000002       -3.0000000000000000                1   1.8545994065281900E-006           7
   1.86302498E-06   2.63473992E-01   1.07602793E+06   7.52794496E+00   1.07596536E+06 2 1
  -2.2000000000000002       -1.7999999999999998                1   1.8545994065281900E-006           7
   1.86769409E-06  -6.38920066E-01   1.07470250E+06   1.38935726E+01   1.07462416E+06 3 1
  -2.2000000000000002      -0.59999999999999964                1   1.8545994065281900E-006           7
   1.87106767E-06  -2.32529984E-01   1.07375702E+06   2.27587043E+01   1.07365820E+06 3 1
  -2.2000000000000002       0.59999999999999964                1   1.8545994065281900E-006           7
   1.87106767E-06   2.32529984E-01   1.07375702E+06   2.27587043E+01   1.07365820E+06 3 1
  -2.2000000000000002        1.7999999999999998                1   1.8545994065281900E-006           7
   1.86769409E-06   6.38920066E-01   1.07470250E+06   1.38935726E+01   1.07462416E+06 3 1
  -2.2000000000000002        3.0000000000000000                1   1.8545994065281900E-006           7
   1.86302498E-06  -2.63473992E-01   1.07602793E+06   7.52794496E+00   1.07596536E+06 2 1
  -2.2000000000000002        4.1999999999999993                1   1.8545994065281900E-006           7
   1.86039870E-06  -8.79666770E-01   1.07677911E+06   5.57903208E+00   1.07672253E+06 2 1
  -2.2000000000000002        5.4000000000000004                1   1.8545994065281900E-006           7
   1.85895957E-06  -8.64438018E-01   1.07719187E+06   4.17689778E+00   1.07713830E+06 1 1
  -1.0000000000000000       -5.4000000000000004                1   1.8545994065281900E-006           7
   1.85950828E-06   9.82996990E-01   1.07703569E+06   5.33775328E+00   1.07698025E+06 2 1
  -1.0000000000000000       -4.2000000000000002                1   1.8545994065281900E-006           7
   1.86242860E-06  -7.10903642E-01   1.07620483E+06   8.19824256E+00   1.07613933E+06 2 1
  -1.0000000000000000       -3.0000000000000000                1   1.8545994065281900E-006           5
   9.40544484E-01   5.46989029E-01   5.39511482E+05   1.32529223E+02   5.39201348E+05 1 0
  -1.0000000000000000       -1.7999999999999998                1   1.8545994065281900E-006           5
   9.40544484E-01  -7.60368883E-01   5.39506117E+05   1.30713322E+02   5.39199995E+05 1 0
  -1.0000000000000000      -0.59999999999999964                1   1.8545994065281900E-006           5
   9.40544484E-01  -5.23111545E-01   5.39503793E+05   1.28766321E+02   5.39199092E+05 0 0
  -1.0000000000000000       0.59999999999999964                1   1.8545994065281900E-006           5
   9.40544484E-01   5.23111545E-01   5.39503793E+05   1.28766321E+02   5.39199092E+05 0 0
  -1.0000000000000000        1.7999999999999998                1   1.8545994065281900E-006           5
   9.40544484E-01   7.60368883E-01   5.39506117E+05   1.30713322E+02   5.39199995E+05 1 0
  -1.0000000000000000        3.0000000000000000                1   1.8545994065281900E-006           5
   9.40544484E-01  -5.46989029E-01   5.39511482E+05   1.32529223E+02   5.39201348E+05 1 0
  -1.0000000000000000        4.1999999999999993                1   1.8545994065281900E-006           7
   1.86242860E-06   7.10903642E-01   1.07620483E+06   8.19824256E+00   1.07613933E+06 2 1
  -1.0000000000000000        5.4000000000000004                1   1.8545994065281900E-006           7
   1.85950828E-06  -9.82996990E-01   1.07703569E+06   5.33775328E+00   1.07698025E+06 2 1
  0.20000000000000018       -5.4000000000000004                1   1.8545994065281900E-006           7
   1.85997039E-06   7.79611930E-01   1.07690564E+06  -5.64547518E+00   1.07684781E+06 2 1
  0.20000000000000018       -4.2000000000000002                1   1.8545994065281900E-006           5
   9.40544484E-01   9.71245339E-01   5.39514301E+05   1.26021712E+02   5.39202419E+05 1 0
  0.20000000000000018       -3.0000000000000000                1   1.8545994065281900E-006           5
   9.40544484E-01  -5.01381867E-01   5.39507532E+05   1.25375286E+02   5.39200160E+05 1 0
  0.20000000000000018       -1.7999999999999998                1   1.8545994065281900E-006           5
   9.40544484E-01  -9.92075552E-01   5.39504702E+05   1.27223824E+02   5.39199061E+05 0 0
  0.20000000000000018      -0.59999999999999964                1   1.8545994065281900E-006           5
   9.40544484E-01  -4.67463319E-01   5.39503293E+05   1.27800415E+02   5.39198354E+05 0 0
  0.20000000000000018       0.59999999999999964                1   1.8545994065281900E-006           5
   9.40544484E-01   4.67463319E-01   5.39503293E+05   1.27800415E+02   5.39198354E+05 0 0
  0.20000000000000018        1.7999999999999998                1   1.8545994065281900E-006           5
   9.40544484E-01   9.92075552E-01   5.39504702E+05   1.27223824E+02   5.39199061E+05 0 0
  0.20000000000000018        3.0000000000000000                1   1.8545994065281900E-006           5
   9.40544484E-01   5.01381867E-01   5.39507532E+05   1.25375286E+02   5.39200160E+05 1 0
  0.20000000000000018        4.1999999999999993                1   1.8545994065281900E-006           5
   9.40544484E-01  -9.71245339E-01   5.39514301E+05   1.26021712E+02   5.39202419E+05 1 0
  0.20000000000000018        5.4000000000000004                1   1.8545994065281900E-006           7
   1.85997039E-06  -7.79611930E-01   1.07690564E+06  -5.64547518E+00   1.07684781E+06 2 1
   1.4000000000000004       -5.4000000000000004                1   1.8545994065281900E-006           7
   1.86014972E-06   1.37158112E-01   1.07685780E+06  -5.46118593E+00   1.07679751E+06 2 1
   1.4000000000000004       -4.2000000000000002                1   1.8545994065281900E-006           5
   9.40544484E-01   6.00138751E-01   5.39511730E+05   1.25557621E+02   5.39201617E+05 1 0
   1.4000000000000004       -3.0000000000000000                1   1.8545994065281900E-006           5
   9.40544484E-01  -5.76087522E-01   5.39507048E+05   1.25627110E+02   5.39199795E+05 1 0
   1.4000000000000004       -1.7999999999999998                1   1.8545994065281900E-006           5
   9.40544484E-01  -8.15771227E-01   5.39504782E+05   1.26640492E+02   5.39198772E+05 0 0
   1.4000000000000004      -0.59999999999999964                1   1.8545994065281900E-006           5
   9.40544484E-01  -3.57392479E-01   5.39503689E+05   1.27190798E+02   5.39198198E+05 0 0
   1.4000000000000004       0.59999999999999964                1   1.8545994065281900E-006           5
   9.40544484E-01   3.57392479E-01   5.39503689E+05   1.27190798E+02   5.39198198E+05 0 0
   1.4000000000000004        1.7999999999999998                1   1.8545994065281900E-006           5
   9.40544484E-01   8.15771227E-01   5.39504782E+05   1.26640492E+02   5.39198772E+05 0 0
   1.4000000000000004        3.0000000000000000                1   1.8545994065281900E-006           5
   9.40544484E-01   5.76087522E-01   5.39507048E+05   1.25627110E+02   5.39199795E+05 1 0
   1.4000000000000004        4.1999999999999993                1   1.8545994065281900E-006           5
   9.40544484E-01  -6.00138751E-01   5.39511730E+05   1.25557621E+02   5.39201617E+05 1 0
   1.4000000000000004        5.4000000000000004                1   1.8545994065281900E-006           7
   1.86014972E-06  -1.37158112E-01   1.07685780E+06  -5.46118593E+00   1.07679751E+06 2 1
   2.5999999999999996       -5.4000000000000004                1   1.8545994065281900E-006           7
   1.85971516E-06   1.87939424E-01   1.07698322E+06  -5.50392066E+00   1.07692353E+06 2 1
   2.5999999999999996       -4.2000000000000002                1   1.8545994065281900E-006           5
   9.40544484E-01   6.15908703E-01   5.39512331E+05   1.25298421E+02   5.39201922E+05 1 0
   2.5999999999999996       -3.0000000000000000                1   1.8545994065281900E-006           5
   9.40544484E-01  -3.18670707E-01   5.39507789E+05   1.25685903E+02   5.39199976E+05 1 0
   2.5999999999999996       -1.7999999999999998                1   1.8545994065281900E-006           5
   9.40544484E-01  -5.40800621E-01   5.39505663E+05   1.26275661E+02   5.39198970E+05 1 0
   2.5999999999999996      -0.59999999999999964                1   1.8545994065281900E-006           5
   9.40544484E-01  -2.41257185E-01   5.39504688E+05   1.26675232E+02   5.39198462E+05 0 0
   2.5999999999999996       0.59999999999999964                1   1.8545994065281900E-006           5
   9.40544484E-01   2.41257185E-01   5.39504688E+05   1.26675232E+02   5.39198462E+05 0 0
   2.5999999999999996        1.7999999999999998                1   1.8545994065281900E-006           5
   9.40544484E-01   5.40800621E-01   5.39505663E+05   1.26275661E+02   5.39198970E+05 1 0
   2.5999999999999996        3.0000000000000000                1   1.8545994065281900E-006           5
   9.40544484E-01   3.18670707E-01   5.39507789E+05   1.25685903E+02   5.39199976E+05 1 0
   2.5999999999999996        4.1999999999999993                1   1.8545994065281900E-006           5
   9.40544484E-01  -6.15908703E-01   5.39512331E+05   1.25298421E+02   5.39201922E+05 1 0
   2.5999999999999996        5.4000000000000004                1   1.8545994065281900E-006           7
   1.85971516E-06  -1.87939424E-01   1.07698322E+06  -5.50392066E+00   1.07692353E+06 2 1
   3.7999999999999998       -5.4000000000000004                1   1.8545994065281900E-006           7
   1.85892248E-06   6.86068901E-01   1.07720844E+06  -5.14437278E+00   1.07715180E+06 2 1
   3.7999999999999998       -4.2000000000000002                1   1.8545994065281900E-006           5
   9.40544484E-01   7.45320893E-01   5.39515581E+05   1.24482405E+02   5.39203408E+05 1 0
   3.7999999999999998       -3.0000000000000000                1   1.8545994065281900E-006           5
   9.40544484E-01   7.46166264E-02   5.39509716E+05   1.25461937E+02   5.39200789E+05 1 0
   3.7999999999999998       -1.7999999999999998                1   1.8545994065281900E-006           5
   9.40544484E-01  -2.28620198E-01   5.39507372E+05   1.25875945E+02   5.39199671E+05 1 0
   3.7999999999999998      -0.59999999999999964                1   1.8545994065281900E-006           5
   9.40544484E-01  -1.23714970E-01   5.39506371E+05   1.26157951E+02   5.39199162E+05 1 0
   3.7999999999999998       0.59999999999999964                1   1.8545994065281900E-006           5
   9.40544484E-01   1.23714970E-01   5.39506371E+05   1.26157951E+02   5.39199162E+05 1 0
   3.7999999999999998        1.7999999999999998                1   1.8545994065281900E-006           5
   9.40544484E-01   2.28620198E-01   5.39507372E+05   1.25875945E+02   5.39199671E+05 1 0
   3.7999999999999998        3.0000000000000000                1   1.8545994065281900E-006           5
   9.40544484E-01  -7.46166264E-02   5.39509716E+05   1.25461937E+02   5.39200789E+05 1 0
   3.7999999999999998        4.1999999999999993                1   1.8545994065281900E-006           5
   9.40544484E-01  -7.45320893E-01   5.39515581E+05   1.24482405E+02   5.39203408E+05 1 0
   3.7999999999999998        5.4000000000000004                1   1.8545994065281900E-006           7
   1.85892248E-06  -6.86068901E-01   1.07720844E+06  -5.14437278E+00   1.07715180E+06 2 1
   5.0000000000000000       -5.4000000000000004                1   1.8545994065281900E-006           7
   1.85821825E-06   7.36766887E-01   1.07740885E+06  -4.43110163E+00   1.07735474E+06 1 1
   5.0000000000000000       -4.2000000000000002                1   1.8545994065281900E-006           7
   1.85964679E-06  -6.27648457E-01   1.07701149E+06  -6.55120151E+00   1.07694728E+06 2 1
   5.0000000000000000       -3.0000000000000000                1   1.8545994065281900E-006           5
   9.40544484E-01   4.60548128E-01   5.39513849E+05   1.24779779E+02   5.39202721E+05 1 0
   5.0000000000000000       -1.7999999999999998                1   1.8545994065281900E-006           5
   9.40544484E-01   9.63450863E-02   5.39510415E+05   1.25319609E+02   5.39201103E+05 1 0
   5.0000000000000000      -0.59999999999999964                1   1.8545994065281900E-006           5
   9.40544484E-01  -5.17788598E-03   5.39509142E+05   1.25545845E+02   5.39200478E+05 1 0
   5.0000000000000000       0.59999999999999964                1   1.8545994065281900E-006           5
   9.40544484E-01   5.17788598E-03   5.39509142E+05   1.25545845E+02   5.39200478E+05 1 0
   5.0000000000000000        1.7999999999999998                1   1.8545994065281900E-006           5
   9.40544484E-01  -9.63450863E-02   5.39510415E+05   1.25319609E+02   5.39201103E+05 1 0
   5.0000000000000000        3.0000000000000000                1   1.8545994065281900E-006           5
   9.40544484E-01  -4.60548128E-01   5.39513849E+05   1.24779779E+02   5.39202721E+05 1 0
   5.0000000000000000        4.1999999999999993                1   1.8545994065281900E-006           7
   1.85964679E-06   6.27648457E-01   1.07701149E+06  -6.55120151E+00   1.07694728E+06 2 1
   5.0000000000000000        5.4000000000000004                1   1.8545994065281900E-006           7
   1.85821825E-06  -7.36766887E-01   1.07740885E+06  -4.43110163E+00   1.07735474E+06 1 1
   6.1999999999999993       -5.4000000000000004                1   1.8545994065281900E-006           7
   1.85766990E-06   6.08222309E-01   1.07756525E+06  -4.03724702E+00   1.07751296E+06 1 1
   6.1999999999999993       -4.2000000000000002                1   1.8545994065281900E-006           7
   1.85821994E-06   5.59591422E-01   1.07740934E+06  -4.59174694E+00   1.07735475E+06 2 1
   6.1999999999999993       -3.0000000000000000                1   1.8545994065281900E-006           7
   1.85918203E-06  -1.83366237E-01   1.07714147E+06  -5.97000200E+00   1.07708033E+06 2 1
   6.1999999999999993       -1.7999999999999998                1   1.8545994065281900E-006           5
   9.40544484E-01   2.70638447E-01   5.39517678E+05   1.24095948E+02   5.39204568E+05 2 0
   6.1999999999999993      -0.59999999999999964                1   1.8545994065281900E-006           5
   9.40544484E-01   9.24985904E-02   5.39514754E+05   1.24565355E+02   5.39203209E+05 1 0
   6.1999999999999993       0.59999999999999964                1   1.8545994065281900E-006           5
   9.40544484E-01  -9.24985904E-02   5.39514754E+05   1.24565355E+02   5.39203209E+05 1 0
   6.1999999999999993        1.7999999999999998                1   1.8545994065281900E-006           5
   9.40544484E-01  -2.70638447E-01   5.39517678E+05   1.24095948E+02   5.39204568E+05 2 0
   6.1999999999999993        3.0000000000000000                1   1.8545994065281900E-006           7
   1.85918203E-06   1.83366237E-01   1.07714147E+06  -5.97000200E+00   1.07708033E+06 2 1
   6.1999999999999993        4.1999999999999993                1   1.8545994065281900E-006           7
   1.85821994E-06  -5.59591422E-01   1.07740934E+06  -4.59174694E+00   1.07735475E+06 2 1
   6.1999999999999993        5.4000000000000004                1   1.8545994065281900E-006           7
   1.85766990E-06  -6.08222309E-01   1.07756525E+06  -4.03724702E+00   1.07751296E+06 1 1
   7.4000000000000004       -5.4000000000000004                1   1.8545994065281900E-006           7
   1.85724766E-06   4.72605032E-01   1.07768583E+06  -3.84669816E+00   1.07763492E+06 1 1
   7.4000000000000004       -4.2000000000000002                1   1.8545994065281900E-006           7
   1.85755767E-06   4.53470648E-01   1.07759767E+06  -4.08337465E+00   1.07754557E+06 1 1
   7.4000000000000004       -3.0000000000000000                1   1.8545994065281900E-006           7
   1.85789706E-06   3.76274917E-01   1.07750147E+06  -4.38446577E+00   1.07744794E+06 1 1
   7.4000000000000004       -1.7999999999999998                1   1.8545994065281900E-006           7
   1.85823182E-06   2.27136179E-01   1.07740708E+06  -4.72718440E+00   1.07735190E+06 2 1
   7.4000000000000004      -0.59999999999999964                1   1.8545994065281900E-006           7
   1.85846988E-06   6.31102189E-02   1.07734040E+06  -5.01964037E+00   1.07728383E+06 2 1
   7.4000000000000004       0.59999999999999964                1   1.8545994065281900E-006           7
   1.85846988E-06  -6.31102189E-02   1.07734040E+06  -5.01964037E+00   1.07728383E+06 2 1
   7.4000000000000004        1.7999999999999998                1   1.8545994065281900E-006           7
   1.85823182E-06  -2.27136179E-01   1.07740708E+06  -4.72718440E+00   1.07735190E+06 2 1
   7.4000000000000004        3.0000000000000000                1   1.8545994065281900E-006           7
   1.85789706E-06  -3.76274917E-01   1.07750147E+06  -4.38446577E+00   1.07744794E+06 1 1
   7.4000000000000004        4.1999999999999993                1   1.8545994065281900E-006           7
   1.85755767E-06  -4.53470648E-01   1.07759767E+06  -4.08337465E+00   1.07754557E+06 1 1
   7.4000000000000004        5.4000000000000004                1   1.8545994065281900E-006           7
   1.85724766E-06  -4.72605032E-01   1.07768583E+06  -3.84669816E+00   1.07763492E+06 1 1
